<svg xmlns="http://www.w3.org/2000/svg" width="22.433" height="13.166" viewBox="0 0 22.433 13.166">
  <g id="subscriptions" transform="translate(-662.159 -495.395)">
    <g id="Group_13914" data-name="Group 13914" transform="translate(573.648 433.343)">
      <g id="Group_13913" data-name="Group 13913" transform="translate(-573.648 -433.344)">
        <path id="Path_9895" data-name="Path 9895" d="M665.933,496.047a2.378,2.378,0,0,1,1.637-.651h14.638a2.38,2.38,0,0,1,1.637.651l.016.016a2.374,2.374,0,0,1,.731,1.718v8.4a2.373,2.373,0,0,1-.651,1.637l-.014.015a2.381,2.381,0,0,1-1.719.732H667.57a2.379,2.379,0,0,1-1.719-.732l-.014-.015a2.374,2.374,0,0,1-.652-1.637v-1.446a.45.45,0,0,1,.9,0v1.446a1.479,1.479,0,0,0,.158.666l5.525-4.927-5.48-4.886a1.477,1.477,0,0,0-.2.75v1.779a.45.45,0,0,1-.9,0v-1.779a2.375,2.375,0,0,1,.732-1.718A.121.121,0,0,1,665.933,496.047Zm11.4,6.473-1.688,1.505a1.136,1.136,0,0,1-1.512,0l-1.688-1.505-5.573,4.968a1.479,1.479,0,0,0,.7.174h14.638a1.475,1.475,0,0,0,.7-.174Zm6.156-5.489-5.48,4.886,5.526,4.927a1.478,1.478,0,0,0,.157-.666v-8.4A1.477,1.477,0,0,0,683.489,497.031ZM667.245,502.9h-4.636a.45.45,0,1,0,0,.9h4.636a.45.45,0,1,0,0-.9Zm15.571-6.47a1.49,1.49,0,0,0-.608-.13H667.57a1.483,1.483,0,0,0-.608.13l7.77,6.927a.236.236,0,0,0,.314,0Zm-15.723,3.97h-3.687a.45.45,0,1,0,0,.9h3.687a.45.45,0,1,0,0-.9Z" fill="#21455e" fill-rule="evenodd"/>
      </g>
    </g>
  </g>
</svg>
