<svg id="Group_5338" data-name="Group 5338" xmlns="http://www.w3.org/2000/svg" width="64.421" height="64.421" viewBox="0 0 64.421 64.421">
  <rect id="Rectangle_1401" data-name="Rectangle 1401" width="64.421" height="64.421" rx="14" fill="#cd68ed"/>
  <g id="swarm" transform="translate(10.365 9.829)">
    <circle id="Ellipse_2812" data-name="Ellipse 2812" cx="21.965" cy="21.965" r="21.965" transform="translate(0 0)" fill="#f7fcfd"/>
  </g>
</svg>
