<svg id="Group_5338" data-name="Group 5338" xmlns="http://www.w3.org/2000/svg" width="64.409" height="64.409" viewBox="0 0 64.409 64.409">
  <rect id="Rectangle_1401" data-name="Rectangle 1401" width="64.409" height="64.409" rx="14" fill="#1565c0"/>
  <g id="swarm" transform="translate(10 9.999)">
    <circle id="Ellipse_2812" data-name="Ellipse 2812" cx="21.961" cy="21.961" r="21.961" fill="#f7fcfd"/>
  </g>
</svg>
