<svg xmlns="http://www.w3.org/2000/svg" width="10.061" height="18.98"
     viewBox="0 0 10.061 18.98">
    <g transform="translate(-6134.633 -7081.399)">
        <g transform="translate(6134.633 7081.399)">
            <path d="M6094.8,7092.275a.808.808,0,1,1-.811.808A.807.807,0,0,1,
            6094.8,7092.275Zm1.919-8.971a.594.594,0,0,1,.109-.091,3.71,3.71,0,
            0,0,1.765-3.273,3.919,3.919,0,1,0-7.837,0c0,.106,0,
            .213.011.317a.555.555,0,0,
            1-1.106.088c-.011-.133-.017-.27-.017-.405a5.031,5.031,0,0,1,10.061,
            0,4.8,4.8,0,0,1-2.271,4.207.4.4,0,0,1-.05.045,5.428,5.428,0,0,
            0-2.029,4.233c0,.152.005.3.019.45a.555.555,0,1,
            1-1.106.091c-.016-.178-.024-.357-.024-.541a6.533,6.533,0,0,1,
            2.445-5.1Z"
                  transform="translate(-6089.64 -7074.91)" fill="#21455e"
                  fill-rule="evenodd"/>
        </g>
    </g>
</svg>
