<svg xmlns="http://www.w3.org/2000/svg" width="17.947" height="17.947" viewBox="0 0 17.947 17.947">
  <g id="Group_11869" data-name="Group 11869" transform="translate(24208.035 5534.724)">
    <path id="Path_2218" data-name="Path 2218" d="M177.054,99.434a5,5,0,1,0,5,5A5.008,5.008,0,0,0,177.054,99.434Zm.624,7.075a.624.624,0,0,1-1.248,0v-2.016a.624.624,0,0,1,1.248,0Zm0-3.729a.624.624,0,0,1-1.248,0v-.416a.624.624,0,0,1,1.248,0Zm0,0" transform="translate(-24376.293 -5630.297)" fill="#21455e"/>
    <path id="Path_9298" data-name="Path 9298" d="M423.022,22.414a8.974,8.974,0,1,1-8.974,8.974A8.978,8.978,0,0,1,423.022,22.414Zm0,.895a8.079,8.079,0,1,1-8.08,8.079A8.083,8.083,0,0,1,423.022,23.309Z" transform="translate(-24622.084 -5557.139)" fill="#21455e" fill-rule="evenodd"/>
  </g>
</svg>
